Data Science Workshop
…
To try that with dat let’s arrange the data according to control_1:

dat %>% arrange(control_1)

## # A tibble: 7,702 x 8
##    protein_accession protein_description     control_1 control_2 control_3
##    <chr>             <chr>                       <dbl>     <dbl>     <dbl>
##  1 PAL4G_HUMAN_P0DN~ Peptidyl-prolyl cis-tr~   0.001      0.0177    NA    
##  2 E5RGV5_HUMAN_E5R~ Nucleolysin TIA-1 isof~   0.0011    NA          0.093
##  3 E5RJP4_HUMAN_E5R~ Glutamine--fructose-6-~   0.002     NA         NA    
##  4 I3L3U1_HUMAN_I3L~ Myosin light chain 4 O~   0.00240   NA         NA    
##  5 ENPLL_HUMAN_Q58F~ Putative endoplasmin-l~   0.0026    NA         NA    
##  6 K1C15_HUMAN_P190~ Keratin_ type I cytosk~   0.00290    0.0615     0.122
##  7 B5ME44_HUMAN_B5M~ Outer dense fiber prot~   0.00290   NA         NA    
##  8 PANK3_HUMAN_Q9H9~ Pantothenate kinase 3 ~   0.0033    NA         NA    
##  9 RRS1_HUMAN_Q15050 Ribosome biogenesis re~   0.0035    NA         NA    
## 10 NFL_HUMAN_P07196  Neurofilament light po~   0.0035     0.315      0.564
## # ... with 7,692 more rows, and 3 more variables: treatment_1 <dbl>,
## #   treatment_2 <dbl>, treatment_3 <dbl>
…
Let’s use select with dat to drop the protein description and control experiments using negative indexing and keep everything else:

dat %>% select(-protein_description,-(control_1:control_3))

## # A tibble: 7,702 x 4
##    protein_accession  treatment_1 treatment_2 treatment_3
##    <chr>                    <dbl>       <dbl>       <dbl>
##  1 VATA_HUMAN_P38606        0.645       0.719       0.480
##  2 RL35A_HUMAN_P18077       0.411       0.463       0.356
##  3 MYH10_HUMAN_P35580       7.17        2.01        0.900
##  4 RHOG_HUMAN_P84095        0.164       0.247       0.127
##  5 PSA1_HUMAN_P25786        0.788       0.880       0.763
##  6 PRDX5_HUMAN_P30044       0.545       1.69        0.821
##  7 ACLY_HUMAN_P53396        4.67        5.01        3.57 
##  8 VDAC2_HUMAN_P45880       1.01        1.04        0.904
##  9 LRC47_HUMAN_Q8N1G4       1.22        1.01        0.593
## 10 CH60_HUMAN_P10809        8.31        8.31        5.73 
## # ... with 7,692 more rows
…
Let’s create a new variable for dat called prot_id that use the str_extract function from the stringr package to take the last 6 characters of the protein_accession variable, the ".{6}$" part is called a regular expression, to keep just the UNIPROT id part of the string.

We’ll use select to drop the other variables except the protein accession afterwards via another pipe.

dat %>% 
  mutate(prot_id = str_extract(protein_accession,".{6}$")) %>% 
  select(protein_accession, prot_id)

## # A tibble: 7,702 x 2
##    protein_accession  prot_id
##    <chr>              <chr>  
##  1 VATA_HUMAN_P38606  P38606 
##  2 RL35A_HUMAN_P18077 P18077 
##  3 MYH10_HUMAN_P35580 P35580 
##  4 RHOG_HUMAN_P84095  P84095 
##  5 PSA1_HUMAN_P25786  P25786 
##  6 PRDX5_HUMAN_P30044 P30044 
##  7 ACLY_HUMAN_P53396  P53396 
##  8 VDAC2_HUMAN_P45880 P45880 
##  9 LRC47_HUMAN_Q8N1G4 Q8N1G4 
## 10 CH60_HUMAN_P10809  P10809 
## # ... with 7,692 more rows
…
