Data Science Workshop
…
We can just call the object and return it to the Console, which may or may not be useful depending on the size and type of object we call.

2 .glimpse is a tidyverse function that tries to show us as much data in a data.frame or tibble as possible, telling us the atomic types of data in the table, the number of observations and the number of variables, and importantly shows all the column variable names by transposing the table.

head is a base function that shows us the 6 lines of a R object by default.

str is a base function that show the structure of a R object, so it provides a lot of information, but is not so easy to read.

The outputs for these four functions is shown below:

# call object
dat

## # A tibble: 7,702 x 8
##    protein_accession protein_description     control_1 control_2 control_3
##    <chr>             <chr>                       <dbl>     <dbl>     <dbl>
##  1 VATA_HUMAN_P38606 V-type proton ATPase c~     0.811     0.858     1.04 
##  2 RL35A_HUMAN_P180~ 60S ribosomal protein ~     0.367     0.385     0.409
##  3 MYH10_HUMAN_P355~ Myosin-10 OS=Homo sapi~     2.98      4.62      2.87 
##  4 RHOG_HUMAN_P84095 Rho-related GTP-bindin~     0.142     0.224     0.128
##  5 PSA1_HUMAN_P25786 Proteasome subunit alp~     1.07      0.945     0.803
##  6 PRDX5_HUMAN_P300~ Peroxiredoxin-5_ mitoc~     0.566     0.540     0.488
##  7 ACLY_HUMAN_P53396 ATP-citrate synthase O~     5.00      4.22      5.03 
##  8 VDAC2_HUMAN_P458~ Voltage-dependent anio~     1.35      1.33      1.14 
##  9 LRC47_HUMAN_Q8N1~ Leucine-rich repeat-co~     0.927     0.770     1.17 
## 10 CH60_HUMAN_P10809 60 kDa heat shock prot~     9.45      8.41     10.4  
## # ... with 7,692 more rows, and 3 more variables: treatment_1 <dbl>,
## #   treatment_2 <dbl>, treatment_3 <dbl>
…
